// Jest Snapshot v1, https://goo.gl/fbAQLP

exports[`Loader should render correctly in "debug" mode 1`] = `
<div
  className="loader"
>
  <div
    className="inner one"
  />
  <div
    className="inner two"
  />
  <div
    className="inner three"
  />
</div>
`;
