// Jest Snapshot v1, https://goo.gl/fbAQLP

exports[`NotFound should render correctly in "debug" mode 1`] = `
<div
  className="not-found"
>
  <h1
    className="not-found__title"
  >
     Page Not Found 
  </h1>
  <p
    className="not-found__description"
  >
    Looks like you've followed a broken link or entered a URL that doesn't exist on this site.
  </p>
  <Link
    className="not-found__link"
    to="/"
  >
    <div
      className="back-icon"
    >
      <img
        alt="back-icon"
        src="left-arrow.svg"
      />
    </div>
    <p>
      Back to our site
    </p>
  </Link>
</div>
`;
